[
    {
        "title": "테스트1",
        "id": 0,
        "content": "테스트1"
    },
    {
        "title": "테스트2",
        "id": 1,
        "content": "테스트2"
    },
    {
        "title": "테스트3",
        "id": 2,
        "content": "테스트3"
    },
    {
        "title": "테스트4",
        "id": 3,
        "content": "테스트4"
    },
    {
        "title": "안녕하세요",
        "id": 4,
        "content": "This is a test"
    },
    {
        "title": "안녕하세요2",
        "id": 5,
        "content": "This is a test2"
    }
]